{
    "pipes": [],
    "interfaces": [],
    "injectables": [],
    "guards": [],
    "interceptors": [],
    "classes": [],
    "directives": [],
    "components": [
        {
            "name": "ButtonComponent",
            "id": "component-ButtonComponent-4ef205c97a334c309aa4001c8ab4a6d9571dcae18d0e85aaf0d367467ab5d3a9f13ab3573726f1fcb409bc9b49894dadfb80b1bbe1b6ba7041455ad9d4922004",
            "file": "stories/button.component.ts",
            "encapsulation": [],
            "entryComponents": [],
            "inputs": [],
            "outputs": [],
            "providers": [],
            "selector": "storybook-button",
            "styleUrls": [
                "./button.css"
            ],
            "styles": [],
            "template": "<button   type=\"button\"\n   (click)=\"onClick.emit($event)\"\n   [ngClass]=\"classes\"\n   [ngStyle]=\"{ 'background-color': backgroundColor }\"\n >\n   {{ label }}\n </button>",
            "templateUrl": [],
            "viewProviders": [],
            "inputsClass": [
                {
                    "name": "backgroundColor",
                    "deprecated": false,
                    "deprecationMessage": "",
                    "rawdescription": "\n\nWhat background color to use\n",
                    "description": "<p>What background color to use</p>\n",
                    "line": 26,
                    "type": "string",
                    "decorators": []
                },
                {
                    "name": "label",
                    "defaultValue": "'Button'",
                    "deprecated": false,
                    "deprecationMessage": "",
                    "jsdoctags": [
                        {
                            "pos": 711,
                            "end": 724,
                            "flags": 4227072,
                            "modifierFlagsCache": 0,
                            "transformFlags": 0,
                            "kind": 325,
                            "tagName": {
                                "pos": 712,
                                "end": 720,
                                "flags": 4227072,
                                "modifierFlagsCache": 0,
                                "transformFlags": 0,
                                "kind": 79,
                                "escapedText": "required"
                            },
                            "comment": ""
                        }
                    ],
                    "rawdescription": "\n\nButton contents\n\n",
                    "description": "<p>Button contents</p>\n",
                    "line": 40,
                    "type": "string",
                    "decorators": []
                },
                {
                    "name": "primary",
                    "defaultValue": "false",
                    "deprecated": false,
                    "deprecationMessage": "",
                    "rawdescription": "\n\nIs this the principal call to action on the page?\n",
                    "description": "<p>Is this the principal call to action on the page?</p>\n",
                    "line": 20,
                    "type": "boolean",
                    "decorators": []
                },
                {
                    "name": "size",
                    "defaultValue": "'medium'",
                    "deprecated": false,
                    "deprecationMessage": "",
                    "rawdescription": "\n\nHow large should the button be?\n",
                    "description": "<p>How large should the button be?</p>\n",
                    "line": 32,
                    "type": "\"small\" | \"medium\" | \"large\"",
                    "decorators": []
                }
            ],
            "outputsClass": [
                {
                    "name": "onClick",
                    "defaultValue": "new EventEmitter<Event>()",
                    "deprecated": false,
                    "deprecationMessage": "",
                    "rawdescription": "\n\nOptional click handler\n",
                    "description": "<p>Optional click handler</p>\n",
                    "line": 46,
                    "type": "EventEmitter"
                }
            ],
            "propertiesClass": [],
            "methodsClass": [],
            "deprecated": false,
            "deprecationMessage": "",
            "hostBindings": [],
            "hostListeners": [],
            "description": "",
            "rawdescription": "\n",
            "type": "component",
            "sourceCode": "import { Component, Input, Output, EventEmitter } from '@angular/core';\n\n@Component({\n  selector: 'storybook-button',\n  template: ` <button\n    type=\"button\"\n    (click)=\"onClick.emit($event)\"\n    [ngClass]=\"classes\"\n    [ngStyle]=\"{ 'background-color': backgroundColor }\"\n  >\n    {{ label }}\n  </button>`,\n  styleUrls: ['./button.css'],\n})\nexport default class ButtonComponent {\n  /**\n   * Is this the principal call to action on the page?\n   */\n  @Input()\n  primary = false;\n\n  /**\n   * What background color to use\n   */\n  @Input()\n  backgroundColor?: string;\n\n  /**\n   * How large should the button be?\n   */\n  @Input()\n  size: 'small' | 'medium' | 'large' = 'medium';\n\n  /**\n   * Button contents\n   *\n   * @required\n   */\n  @Input()\n  label = 'Button';\n\n  /**\n   * Optional click handler\n   */\n  @Output()\n  onClick = new EventEmitter<Event>();\n\n  public get classes(): string[] {\n    const mode = this.primary ? 'storybook-button--primary' : 'storybook-button--secondary';\n\n    return ['storybook-button', `storybook-button--${this.size}`, mode];\n  }\n}\n",
            "assetsDirs": [],
            "styleUrlsData": [
                {
                    "data": ".storybook-button {\n  font-family: 'Nunito Sans', 'Helvetica Neue', Helvetica, Arial, sans-serif;\n  font-weight: 700;\n  border: 0;\n  border-radius: 3em;\n  cursor: pointer;\n  display: inline-block;\n  line-height: 1;\n}\n.storybook-button--primary {\n  color: white;\n  background-color: #1ea7fd;\n}\n.storybook-button--secondary {\n  color: #333;\n  background-color: transparent;\n  box-shadow: rgba(0, 0, 0, 0.15) 0px 0px 0px 1px inset;\n}\n.storybook-button--small {\n  font-size: 12px;\n  padding: 10px 16px;\n}\n.storybook-button--medium {\n  font-size: 14px;\n  padding: 11px 20px;\n}\n.storybook-button--large {\n  font-size: 16px;\n  padding: 12px 24px;\n}\n",
                    "styleUrl": "./button.css"
                }
            ],
            "stylesData": "",
            "accessors": {
                "classes": {
                    "name": "classes",
                    "getSignature": {
                        "name": "classes",
                        "type": "[]",
                        "returnType": "string[]",
                        "line": 48
                    }
                }
            }
        },
        {
            "name": "ButtonComponent",
            "id": "component-ButtonComponent-45a19c798ead51d148e03fbe1a8c7d13032d560d9157c4872b4073cc6a2fce7220b68c1e0e025d5f0488401cd37b2550684bd0db1f54bff25e1df581b0e4bd9a-1",
            "file": "projects/button/src/lib/button.component.ts",
            "encapsulation": [],
            "entryComponents": [],
            "inputs": [],
            "outputs": [],
            "providers": [],
            "selector": "jam-button",
            "styleUrls": [],
            "styles": [],
            "template": "<p>\n  button works!\n</p>\n",
            "templateUrl": [],
            "viewProviders": [],
            "inputsClass": [],
            "outputsClass": [],
            "propertiesClass": [],
            "methodsClass": [
                {
                    "name": "ngOnInit",
                    "args": [],
                    "optional": false,
                    "returnType": "void",
                    "typeParameters": [],
                    "line": 17,
                    "deprecated": false,
                    "deprecationMessage": ""
                }
            ],
            "deprecated": false,
            "deprecationMessage": "",
            "hostBindings": [],
            "hostListeners": [],
            "description": "",
            "rawdescription": "\n",
            "type": "component",
            "sourceCode": "import { Component, OnInit } from '@angular/core';\n\n@Component({\n  selector: 'jam-button',\n  template: `\n    <p>\n      button works!\n    </p>\n  `,\n  styles: [\n  ]\n})\nexport class ButtonComponent implements OnInit {\n\n  constructor() { }\n\n  ngOnInit(): void {\n  }\n\n}\n",
            "assetsDirs": [],
            "styleUrlsData": "",
            "stylesData": "",
            "constructorObj": {
                "name": "constructor",
                "description": "",
                "deprecated": false,
                "deprecationMessage": "",
                "args": [],
                "line": 13
            },
            "implements": [
                "OnInit"
            ],
            "isDuplicate": true,
            "duplicateId": 1,
            "duplicateName": "ButtonComponent-1"
        }
    ],
    "modules": [
        {
            "name": "ButtonModule",
            "id": "module-ButtonModule-fc9b78509683f21065b966d1304b44d8433cc4d4a0ac12daf904f4b31fa275a083e389da9b01916dac2bba722ea8918546ee4ab3993da3ac6bebbcc13117266d",
            "description": "",
            "deprecationMessage": "",
            "deprecated": false,
            "file": "projects/button/src/lib/button.module.ts",
            "methods": [],
            "sourceCode": "import { NgModule } from '@angular/core';\nimport { ButtonComponent } from './button.component';\n\n\n\n@NgModule({\n  declarations: [\n    ButtonComponent\n  ],\n  imports: [\n  ],\n  exports: [\n    ButtonComponent\n  ]\n})\nexport class ButtonModule { }\n",
            "children": [
                {
                    "type": "providers",
                    "elements": []
                },
                {
                    "type": "declarations",
                    "elements": [
                        {
                            "name": "ButtonComponent"
                        }
                    ]
                },
                {
                    "type": "imports",
                    "elements": []
                },
                {
                    "type": "exports",
                    "elements": []
                },
                {
                    "type": "bootstrap",
                    "elements": []
                },
                {
                    "type": "classes",
                    "elements": []
                }
            ]
        }
    ],
    "miscellaneous": {
        "variables": [
            {
                "name": "context",
                "ctype": "miscellaneous",
                "subtype": "variable",
                "file": "projects/button/src/test.ts",
                "deprecated": false,
                "deprecationMessage": "",
                "type": "",
                "defaultValue": "require.context('./', true, /\\.spec\\.ts$/)"
            },
            {
                "name": "Large",
                "ctype": "miscellaneous",
                "subtype": "variable",
                "file": "stories/Button.stories.ts",
                "deprecated": false,
                "deprecationMessage": "",
                "type": "",
                "defaultValue": "Template.bind({})"
            },
            {
                "name": "Primary",
                "ctype": "miscellaneous",
                "subtype": "variable",
                "file": "stories/Button.stories.ts",
                "deprecated": false,
                "deprecationMessage": "",
                "type": "",
                "defaultValue": "Template.bind({})"
            },
            {
                "name": "require",
                "ctype": "miscellaneous",
                "subtype": "variable",
                "file": "projects/button/src/test.ts",
                "deprecated": false,
                "deprecationMessage": "",
                "type": "literal type"
            },
            {
                "name": "Secondary",
                "ctype": "miscellaneous",
                "subtype": "variable",
                "file": "stories/Button.stories.ts",
                "deprecated": false,
                "deprecationMessage": "",
                "type": "",
                "defaultValue": "Template.bind({})"
            },
            {
                "name": "Small",
                "ctype": "miscellaneous",
                "subtype": "variable",
                "file": "stories/Button.stories.ts",
                "deprecated": false,
                "deprecationMessage": "",
                "type": "",
                "defaultValue": "Template.bind({})"
            },
            {
                "name": "Template",
                "ctype": "miscellaneous",
                "subtype": "variable",
                "file": "stories/Button.stories.ts",
                "deprecated": false,
                "deprecationMessage": "",
                "type": "Story<Button>",
                "defaultValue": "(args: Button) => ({\n  props: args,\n})"
            }
        ],
        "functions": [],
        "typealiases": [],
        "enumerations": [],
        "groupedVariables": {
            "projects/button/src/test.ts": [
                {
                    "name": "context",
                    "ctype": "miscellaneous",
                    "subtype": "variable",
                    "file": "projects/button/src/test.ts",
                    "deprecated": false,
                    "deprecationMessage": "",
                    "type": "",
                    "defaultValue": "require.context('./', true, /\\.spec\\.ts$/)"
                },
                {
                    "name": "require",
                    "ctype": "miscellaneous",
                    "subtype": "variable",
                    "file": "projects/button/src/test.ts",
                    "deprecated": false,
                    "deprecationMessage": "",
                    "type": "literal type"
                }
            ],
            "stories/Button.stories.ts": [
                {
                    "name": "Large",
                    "ctype": "miscellaneous",
                    "subtype": "variable",
                    "file": "stories/Button.stories.ts",
                    "deprecated": false,
                    "deprecationMessage": "",
                    "type": "",
                    "defaultValue": "Template.bind({})"
                },
                {
                    "name": "Primary",
                    "ctype": "miscellaneous",
                    "subtype": "variable",
                    "file": "stories/Button.stories.ts",
                    "deprecated": false,
                    "deprecationMessage": "",
                    "type": "",
                    "defaultValue": "Template.bind({})"
                },
                {
                    "name": "Secondary",
                    "ctype": "miscellaneous",
                    "subtype": "variable",
                    "file": "stories/Button.stories.ts",
                    "deprecated": false,
                    "deprecationMessage": "",
                    "type": "",
                    "defaultValue": "Template.bind({})"
                },
                {
                    "name": "Small",
                    "ctype": "miscellaneous",
                    "subtype": "variable",
                    "file": "stories/Button.stories.ts",
                    "deprecated": false,
                    "deprecationMessage": "",
                    "type": "",
                    "defaultValue": "Template.bind({})"
                },
                {
                    "name": "Template",
                    "ctype": "miscellaneous",
                    "subtype": "variable",
                    "file": "stories/Button.stories.ts",
                    "deprecated": false,
                    "deprecationMessage": "",
                    "type": "Story<Button>",
                    "defaultValue": "(args: Button) => ({\n  props: args,\n})"
                }
            ]
        },
        "groupedFunctions": {},
        "groupedEnumerations": {},
        "groupedTypeAliases": {}
    },
    "routes": [],
    "coverage": {
        "count": 9,
        "status": "low",
        "files": [
            {
                "filePath": "projects/button/src/lib/button.component.ts",
                "type": "component",
                "linktype": "component",
                "name": "ButtonComponent",
                "coveragePercent": 0,
                "coverageCount": "0/3",
                "status": "low"
            },
            {
                "filePath": "projects/button/src/test.ts",
                "type": "variable",
                "linktype": "miscellaneous",
                "linksubtype": "variable",
                "name": "context",
                "coveragePercent": 0,
                "coverageCount": "0/1",
                "status": "low"
            },
            {
                "filePath": "projects/button/src/test.ts",
                "type": "variable",
                "linktype": "miscellaneous",
                "linksubtype": "variable",
                "name": "require",
                "coveragePercent": 0,
                "coverageCount": "0/1",
                "status": "low"
            },
            {
                "filePath": "stories/Button.stories.ts",
                "type": "variable",
                "linktype": "miscellaneous",
                "linksubtype": "variable",
                "name": "Large",
                "coveragePercent": 0,
                "coverageCount": "0/1",
                "status": "low"
            },
            {
                "filePath": "stories/Button.stories.ts",
                "type": "variable",
                "linktype": "miscellaneous",
                "linksubtype": "variable",
                "name": "Primary",
                "coveragePercent": 0,
                "coverageCount": "0/1",
                "status": "low"
            },
            {
                "filePath": "stories/Button.stories.ts",
                "type": "variable",
                "linktype": "miscellaneous",
                "linksubtype": "variable",
                "name": "Secondary",
                "coveragePercent": 0,
                "coverageCount": "0/1",
                "status": "low"
            },
            {
                "filePath": "stories/Button.stories.ts",
                "type": "variable",
                "linktype": "miscellaneous",
                "linksubtype": "variable",
                "name": "Small",
                "coveragePercent": 0,
                "coverageCount": "0/1",
                "status": "low"
            },
            {
                "filePath": "stories/Button.stories.ts",
                "type": "variable",
                "linktype": "miscellaneous",
                "linksubtype": "variable",
                "name": "Template",
                "coveragePercent": 0,
                "coverageCount": "0/1",
                "status": "low"
            },
            {
                "filePath": "stories/button.component.ts",
                "type": "component",
                "linktype": "component",
                "name": "ButtonComponent",
                "coveragePercent": 83,
                "coverageCount": "5/6",
                "status": "very-good"
            }
        ]
    }
}